[
  "action",
  "bigbazar",
  "blokker",
  "c&a",
  "douglas",
  "etos",
  "haren",
  "hema",
  "hunkemoeller",
  "intertoys",
  "intratuin",
  "jysk",
  "kik",
  "kwik",
  "lucardi",
  "nike",
  "primera",
  "scapino",
  "tuinen",
  "wibra",
  "zeeman"
]